[
  {
    "description": "查詢成功範例",
    "output": {
      "results": [
        {"user": "如何學習程式設計", "response": "建議從基礎開始學習", "score": 0.85}
      ],
      "status": "ok"
    }
  },
  {
    "description": "查詢空結果範例",
    "output": {
      "results": [],
      "message": "查無相關記憶",
      "status": "empty"
    }
  },
  {
    "description": "儲存成功範例",
    "output": {
      "status": "stored"
    }
  },
  {
    "description": "列出記憶範例",
    "output": {
      "records": [
        {"user": "什麼是AI？", "response": "人工智慧是模擬人類智能的技術"},
        {"user": "如何學習Python？", "response": "建議從基礎語法開始"}
      ],
      "page": 1,
      "total_pages": 3,
      "total_records": 25,
      "status": "ok"
    }
  },
  {
    "description": "清除成功範例",
    "output": {
      "status": "cleared",
      "deleted": 3,
      "message": "成功刪除 3 筆記憶"
    }
  },
  {
    "description": "錯誤範例",
    "output": {
      "error": "請提供查詢文本",
      "status": "failed"
    }
  }
]
